%YAML 1.1
%TAG !u! tag:unity3d.com,2011:
--- !u!1 &2079850385
GameObject:
  m_ObjectHideFlags: 0
  m_CorrespondingSourceObject: {fileID: 0}
  m_PrefabInstance: {fileID: 0}
  m_PrefabAsset: {fileID: 0}
  serializedVersion: 6
  m_Component:
  - component: {fileID: 2079850386}
  - component: {fileID: 2079850389}
  - component: {fileID: 2079850388}
  - component: {fileID: 2079850387}
  m_Layer: 5
  m_Name: Healthbar
  m_TagString: Health
  m_Icon: {fileID: 0}
  m_NavMeshLayer: 0
  m_StaticEditorFlags: 0
  m_IsActive: 1
--- !u!224 &2079850386
RectTransform:
  m_ObjectHideFlags: 0
  m_CorrespondingSourceObject: {fileID: 0}
  m_PrefabInstance: {fileID: 0}
  m_PrefabAsset: {fileID: 0}
  m_GameObject: {fileID: 2079850385}
  m_LocalRotation: {x: 0, y: 0, z: 0, w: 1}
  m_LocalPosition: {x: 0, y: 0, z: 0}
  m_LocalScale: {x: 1, y: 1, z: 1}
  m_Children: []
  m_Father: {fileID: 0}
  m_RootOrder: 0
  m_LocalEulerAnglesHint: {x: 0, y: 0, z: 0}
  m_AnchorMin: {x: 1, y: 1}
  m_AnchorMax: {x: 1, y: 1}
  m_AnchoredPosition: {x: -125.899994, y: -57.100006}
  m_SizeDelta: {x: 208, y: 79.5}
  m_Pivot: {x: 0.5, y: 0.5}
--- !u!222 &2079850389
CanvasRenderer:
  m_ObjectHideFlags: 0
  m_CorrespondingSourceObject: {fileID: 0}
  m_PrefabInstance: {fileID: 0}
  m_PrefabAsset: {fileID: 0}
  m_GameObject: {fileID: 2079850385}
  m_CullTransparentMesh: 0
--- !u!114 &2079850388
MonoBehaviour:
  m_ObjectHideFlags: 0
  m_CorrespondingSourceObject: {fileID: 0}
  m_PrefabInstance: {fileID: 0}
  m_PrefabAsset: {fileID: 0}
  m_GameObject: {fileID: 2079850385}
  m_Enabled: 1
  m_EditorHideFlags: 0
  m_Script: {fileID: -765806418, guid: f70555f144d8491a825f0804e09c671c, type: 3}
  m_Name: 
  m_EditorClassIdentifier: 
  m_Material: {fileID: 0}
  m_Color: {r: 1, g: 1, b: 1, a: 1}
  m_RaycastTarget: 1
  m_OnCullStateChanged:
    m_PersistentCalls:
      m_Calls: []
    m_TypeName: UnityEngine.UI.MaskableGraphic+CullStateChangedEvent, UnityEngine.UI,
      Version=1.0.0.0, Culture=neutral, PublicKeyToken=null
  m_Sprite: {fileID: 21300000, guid: 7e6a656017a84ca43b358114cbd051ee, type: 3}
  m_Type: 0
  m_PreserveAspect: 0
  m_FillCenter: 1
  m_FillMethod: 4
  m_FillAmount: 1
  m_FillClockwise: 1
  m_FillOrigin: 0
  m_UseSpriteMesh: 0
--- !u!114 &2079850387
MonoBehaviour:
  m_ObjectHideFlags: 0
  m_CorrespondingSourceObject: {fileID: 0}
  m_PrefabInstance: {fileID: 0}
  m_PrefabAsset: {fileID: 0}
  m_GameObject: {fileID: 2079850385}
  m_Enabled: 1
  m_EditorHideFlags: 0
  m_Script: {fileID: 11500000, guid: cfd46ab7945421b44a80be1629b00b16, type: 3}
  m_Name: 
  m_EditorClassIdentifier: 
  sprites:
  - {fileID: 21300000, guid: 7e6a656017a84ca43b358114cbd051ee, type: 3}
  - {fileID: 21300000, guid: eb36fb453fc4e8e4ca00e8963e07ae82, type: 3}
  - {fileID: 21300000, guid: 121b98b1dc9d6f448ae2cafd18848a16, type: 3}
  - {fileID: 21300000, guid: 98e76f221a39dc84daca2bfa29df0e43, type: 3}
  - {fileID: 21300000, guid: f0b673729d86e8544aa3ce3554868fa0, type: 3}
  - {fileID: 21300000, guid: 92e1bfd7d65a6f149a78411f1960bdad, type: 3}
  - {fileID: 21300000, guid: 2a8403611a55fa748b3e3eda34be605b, type: 3}
  - {fileID: 21300000, guid: b248171998e052c4ea7a935cae01e6cf, type: 3}
  - {fileID: 21300000, guid: 9181eda764645424fbc1b347988ba6b1, type: 3}
  - {fileID: 21300000, guid: 4b3aad560836cf94e9b4b7e908e442b4, type: 3}
